snt(
	np(
		pn(mary)
	),
	vp(
		iv(runs),
		adv(quickly)
	)
)
snt(
	np(
		n(mary)
	),
	vp(
		av(is),
		adj(tall/slim/blonde)
	)
)

snt(
	np(
		pn(mary)
	),
	vp(
		tv(gives),
		np(
			pn(john/tomy)
		),
		np(
			det(a),
			n(dog/book)
		),
	)
)

snt(
	np(
		pn(mary)
	),
	vp(
		v(loves),
		np(
			n(books)
		)
	)
)